[{"id":"HEX",
  "currency":"HEX",
  "symbol":"HEX",
  "name":"HEX",
  "logo_url":"https://s3.us-east-2.amazonaws.com/nomics-api/static/images/currencies/HEX.jpeg",
  "status":"active",
  "price":"0.00603548",
  "price_date":"2021-02-02T00:00:00Z",
  "price_timestamp":"2021-02-02T17:12:00Z",
  "circulating_supply":"567865633955",
  "max_supply":"629620558773",
  "market_cap":"3427341522",
  "num_exchanges":"26",
  "num_pairs":"73",
  "num_pairs_unmapped":"2",
  "first_candle":"2019-12-13T00:00:00Z",
  "first_trade":"2020-06-09T00:00:00Z",
  "first_order_book":"2020-03-11T00:00:00Z",
  "rank":"14",
  "rank_delta":"1",
  "high":"0.01384142",
  "high_timestamp":"2020-12-31T00:00:00Z",
  "1d":{"volume":"2870090.42",
        "price_change":"0.00011819","price_change_pct":"0.0200","volume_change":"-164178.65","volume_change_pct":"-0.0541","market_cap_change":"67314781.36","market_cap_change_pct":"0.0200"},"30d":{"volume":"154011370.72","price_change":"-0.00368340","price_change_pct":"-0.3790","volume_change":"14278029.86","volume_change_pct":"0.1022","market_cap_change":"-2084981532.74","market_cap_change_pct":"-0.3782"}}]